{
	"data": [
		{
			"name": "dedicado",
			"cmd": "dedicado",
			"url": [],
			"help": "Graficos dedicados Channel Performance"
		},
		{
			"name": "negocio",
			"cmd": "negocio",
			"url": [],
			"help": "Graficos de negocios Channel Performance"
		},
		{
			"name": "coacod",
			"cmd": "coacod",
			"url": [],
			"help": "Graficos de informações Coacod Channel Performance"
		},
		{
			"name": "participante",
			"cmd": "participante",
			"url": [],
			"help": "Graficos de informações Participante Channel Performance"
		},
		{
			"name": "MQ Channel Performance Negócios/Gauge Caixa",
			"cmd": "ngacaixa",
			"url": "https://dashboard.cip-core.local:8443/render/d-solo/_rpTdZ7iz/mq-channel-performance?refresh=1m&orgId=1&panelId=2&width=1000&height=500&tz=America%2FSao_Paulo",
			"help": "MQ Channel Performance negócios Gauge Caixa"
		},
		{
			"name": "MQ Channel Performance Negócios/Line Caixa",
			"cmd": "nlicaixa",
			"url": "https://dashboard.cip-core.local:8443/render/d-solo/_rpTdZ7iz/mq-channel-performance?refresh=1m&orgId=1&panelId=14&width=1000&height=500&tz=America%2FSao_Paulo",
			"help": "MQ Channel Performance negócios Line Caixa"
		},
		{
			"name": "MQ Channel Performance Negócios/Gauge Banco do Brasil",
			"cmd": "ngabb",
			"url": "https://dashboard.cip-core.local:8443/render/d-solo/_rpTdZ7iz/mq-channel-performance?refresh=1m&orgId=1&panelId=3&width=1000&height=500&tz=America%2FSao_Paulo",
			"help": "MQ Channel Performance negócios Gauge Banco do Brasil"
		},
		{
			"name": "MQ Channel Performance Negócios/Line Banco Brasil",
			"cmd": "nlibb",
			"url": "https://dashboard.cip-core.local:8443/render/d-solo/_rpTdZ7iz/mq-channel-performance?refresh=1m&orgId=1&panelId=15&width=1000&height=500&tz=America%2FSao_Paulo",
			"help": "MQ Channel Performance Line Banco Brasil"
		},
		{
			"name": "MQ Channel Performance Negócios/Gauge Santander",
			"cmd": "ngasant",
			"url": "https://dashboard.cip-core.local:8443/render/d-solo/_rpTdZ7iz/mq-channel-performance?refresh=1m&orgId=1&panelId=4&width=1000&height=500&tz=America%2FSao_Paulo",
			"help": "MQ Channel Performance negócios Gauge Santander"
		},
		{
			"name": "MQ Channel Performance Negócios/Line Santander",
			"cmd": "nlisant",
			"url": "https://dashboard.cip-core.local:8443/render/d-solo/_rpTdZ7iz/mq-channel-performance?refresh=1m&orgId=1&panelId=16&width=1000&height=500&tz=America%2FSao_Paulo",
			"help": "MQ Channel Performance negócios Line Santander"
		},
		{
			"name": "MQ Channel Performance Negócios/Gauge Itaú",
			"cmd": "ngaitau",
			"url": "https://dashboard.cip-core.local:8443/render/d-solo/_rpTdZ7iz/mq-channel-performance?refresh=1m&orgId=1&panelId=5&width=1000&height=500&tz=America%2FSao_Paulo",
			"help": "MQ Channel Performance negócios Gauge Itaú"
		},
		{
			"name": "MQ Channel Performance Negócios/Line Itaú",
			"cmd": "nliitau",
			"url": "https://dashboard.cip-core.local:8443/render/d-solo/_rpTdZ7iz/mq-channel-performance?refresh=1m&orgId=1&panelId=17&width=1000&height=500&tz=America%2FSao_Paulo",
			"help": "MQ Channel Performance Negócios/Line Itaú"
		},
		{
			"name": "MQ Channel Performance Negócios/Gauge Bradesco",
			"cmd": "ngabra",
			"url": "https://dashboard.cip-core.local:8443/render/d-solo/_rpTdZ7iz/mq-channel-performance?refresh=1m&orgId=1&panelId=25&width=1000&height=500&tz=America%2FSao_Paulo",
			"help": "MQ Channel Performance Negócios/Gauge Bradesco"
		},
		{
			"name": "MQ Channel Performance Negócios/Line Bradesco",
			"cmd": "nlibra",
			"url": "https://dashboard.cip-core.local:8443/render/d-solo/_rpTdZ7iz/mq-channel-performance?refresh=1m&orgId=1&panelId=11&width=1000&height=500&tz=America%2FSao_Paulo",
			"help": "MQ Channel Performance Negócios/Line Bradesco"
		},
		{
			"name": "MQ Channel Performance Coa/Cod Gauge Caixa",
			"cmd": "ccgcaixa",
			"url": "https://dashboard.cip-core.local:8443/render/d-solo/_rpTdZ7iz/mq-channel-performance?refresh=1m&orgId=1&panelId=21&width=1000&height=500&tz=America%2FSao_Paulo",
			"help": "MQ Channel Performance Coa/Cod Gauge Caixa"
		},
		{
			"name": "MQ Channel Performance Coa/Cod Line Caixa",
			"cmd": "cclcaixa",
			"url": "https://dashboard.cip-core.local:8443/render/d-solo/_rpTdZ7iz/mq-channel-performance?refresh=1m&orgId=1&panelId=26&width=1000&height=500&tz=America%2FSao_Paulo",
			"help": "MQ Channel Performance Coa/Cod Line Caixa"
		},
		{
			"name": "MQ Channel Performance Coa/Cod Gauge BB",
			"cmd": "ccgbb",
			"url": "https://dashboard.cip-core.local:8443/render/d-solo/_rpTdZ7iz/mq-channel-performance?refresh=1m&orgId=1&panelId=22&width=1000&height=500&tz=America%2FSao_Paulo",
			"help": "MQ Channel Performance Coa/Cod Gauge BB"
		},
		{
			"name": "MQ Channel Performance Coa/Cod Line BB",
			"cmd": "cclbb",
			"url": "https://dashboard.cip-core.local:8443/render/d-solo/_rpTdZ7iz/mq-channel-performance?refresh=1m&orgId=1&panelId=27&width=1000&height=500&tz=America%2FSao_Paulo",
			"help": "MQ Channel Performance Coa/Cod"
		},
		{
			"name": "MQ Channel Performance Coa/Cod Gauge Santander",
			"cmd": "ccgsant",
			"url": "https://dashboard.cip-core.local:8443/render/d-solo/_rpTdZ7iz/mq-channel-performance?refresh=1m&orgId=1&panelId=23&width=1000&height=500&tz=America%2FSao_Paulo",
			"help": "MQ Channel Performance Coa/Cod Gauge Santander"
		},
		{
			"name": "MQ Channel Performance Coa/Cod Line Santander",
			"cmd": "cclsant",
			"url": "https://dashboard.cip-core.local:8443/render/d-solo/_rpTdZ7iz/mq-channel-performance?refresh=1m&orgId=1&panelId=28&width=1000&height=500&tz=America%2FSao_Paulo",
			"help": "MQ Channel Performance Coa/Cod Line Santander"
		},
		{
			"name": "MQ Channel Performance Coa/Cod Gauge Itaú",
			"cmd": "ccgitau",
			"url": "https://dashboard.cip-core.local:8443/render/d-solo/_rpTdZ7iz/mq-channel-performance?refresh=1m&orgId=1&panelId=24&width=1000&height=500&tz=America%2FSao_Paulo",
			"help": "MQ Channel Performance Coa/Cod Gauge Itaú"
		},
		{
			"name": "MQ Channel Performance Coa/Cod Line Itaú",
			"cmd": "cclitau",
			"url": "https://dashboard.cip-core.local:8443/render/d-solo/_rpTdZ7iz/mq-channel-performance?refresh=1m&orgId=1&panelId=29&width=1000&height=500&tz=America%2FSao_Paulo",
			"help": "MQ Channel Performance Coa/Cod Line Itaú"
		},
		{
			"name": "MQ Channel Performance Coa/Cod Line Bradesco",
			"cmd": "ccgbra",
			"url": "https://dashboard.cip-core.local:8443/render/d-solo/_rpTdZ7iz/mq-channel-performance?refresh=1m&orgId=1&panelId=6&width=1000&height=500&tz=America%2FSao_Paulo",
			"help": "MQ Channel Performance Coa/Cod Line Bradesco"
		},
		{
			"name": "MQ Channel Performance Coa/Cod Gauge Bradesco",
			"cmd": "cclbra",
			"url": "https://dashboard.cip-core.local:8443/render/d-solo/_rpTdZ7iz/mq-channel-performance?refresh=1m&orgId=1&panelId=30&width=1000&height=500&tz=America%2FSao_Paulo",
			"help": "MQ Channel Performance Coa/Cod Gauge Bradesco"
		},
		{
			"name": "MQ Channel Performance SI/CITI/BAN SICREDI",
			"cmd": "sicga",
			"url": "https://dashboard.cip-core.local:8443/render/d-solo/_rpTdZ7iz/mq-channel-performance?refresh=1m&orgId=1&panelId=31&width=1000&height=500&tz=America%2FSao_Paulo",
			"help": "MQ Channel Performance SI/CITI/BAN SICREDI"
		},
		{
			"name": "MQ Channel Performance SI/CITI/BAN SICREDI",
			"cmd": "sicli",
			"url": "https://dashboard.cip-core.local:8443/render/d-solo/_rpTdZ7iz/mq-channel-performance?refresh=1m&orgId=1&panelId=32&width=1000&height=500&tz=America%2FSao_Paulo",
			"help": "MQ Channel Performance SI/CITI/BAN SICREDI"
		},
		{
			"name": "MQ Channel Performance SI/CITI/BAN CITIBANK",
			"cmd": "citiga",
			"url": "https://dashboard.cip-core.local:8443/render/d-solo/_rpTdZ7iz/mq-channel-performance?refresh=1m&orgId=1&panelId=33&width=1000&height=500&tz=America%2FSao_Paulo",
			"help": "MQ Channel Performance SI/CITI/BAN CITIBANK"
		},
		{
			"name": "MQ Channel Performance SI/CITI/BAN CITIBANK",
			"cmd": "citili",
			"url": "https://dashboard.cip-core.local:8443/render/d-solo/_rpTdZ7iz/mq-channel-performance?refresh=1m&orgId=1&panelId=34&width=1000&height=500&tz=America%2FSao_Paulo",
			"help": "MQ Channel Performance SI/CITI/BAN CITIBANK"
		},
		{
			"name": "MQ Channel Performance SI/CITI/BAN BANESE",
			"cmd": "banga",
			"url": "https://dashboard.cip-core.local:8443/render/d-solo/_rpTdZ7iz/mq-channel-performance?refresh=1m&orgId=1&panelId=35&width=1000&height=500&tz=America%2FSao_Paulo",
			"help": "MQ Channel Performance SI/CITI/BAN BANESE"
		},
		{
			"name": "MQ Channel Performance SI/CITI/BAN BANESE",
			"cmd": "banli",
			"url": "https://dashboard.cip-core.local:8443/render/d-solo/_rpTdZ7iz/mq-channel-performance?refresh=1m&orgId=1&panelId=36&width=1000&height=500&tz=America%2FSao_Paulo",
			"help": "MQ Channel Performance SI/CITI/BAN BANESE"
		},
		{
			"name": "Ajuda para auxilio de comandos validos",
			"cmd": "/h",
			"url": "",
			"help": "Ajuda para auxilio de comandos c3mm"
		}
	]
}