{
    "$schema": "http://adaptivecards.io/schemas/adaptive-card.json",
      "type": "AdaptiveCard",
        "version": "1.0",
        "body": [
          {
                  "type": "Image",
                        "url": "https://adaptivecards.io/content/airplane.png",
                              "size": "large",
                                    "horizontalAlignment": "left"
                                        
          },
          {
                  "type": "Image",
                        "url": "https://adaptivecards.io/content/airplane.png",
                              "size": "large",
                                    "horizontalAlignment": "center"
                                        
          },
          {
                  "type": "Image",
                        "url": "https://adaptivecards.io/content/airplane.png",
                              "size": "large",
                                    "horizontalAlignment": "right"
                                        
          }
            
        ]
        
}
