{
    "cmd" : [
      "opsla",
      "dialog_sla",
      "dialog_pcr",
      "dialog_r2c3",
      "dialog_pcrhc",
      "dialog_stamop",
      "dialog_end",
      "process_pcrhc",
      "process_r2c3arqproc",
      "process_stamnet",
      "process_stam",
      "process_pcrmqchannel",
      "process_r2c3hc",
      "process_opcdm",
      "process_opsla",
      "process_slaop",
      "process_pcrfilamq",
      "dialog_env_procarq",
      "process_r2c3_arqproc_hext",
      "process_r2c3_arqproc_prd"
    ]
}
