{
	"data": [
		"1069",
		"1110",
		"ACESSSOC",
		"ANACESSO",
		"ANADSLA",
		"ANARCHER",
		"ANARIS",
		"ANARQDAD",
		"ANARQSIS",
		"ANASSEXE",
		"ANATEND",
		"ANATIVOS",
		"ANATIVTI",
		"ANATLAS",
		"ANAUTQA",
		"ANBACKUP",
		"ANBENEF",
		"ANBI",
		"ANBICORP",
		"ANC3",
		"ANC3INF",
		"ANCERT2",
		"ANCERTSY",
		"ANCESSOC",
		"ANCETIP",
		"ANCHKL",
		"ANCLIEN",
		"ANCLM",
		"ANCOB",
		"ANCOMPLI",
		"ANCOMPRA",
		"ANCOMUNI",
		"ANCONFIG",
		"ANCONTAB",
		"ANCONTIN",
		"ANCONTR",
		"ANCONTRF",
		"ANCONTRO",
		"ANCPO",
		"ANCQL",
		"ANCQLINF",
		"ANCTC",
		"ANCTCINF",
		"ANCYBER",
		"AND4SIGN",
		"ANDADOS",
		"ANDBA",
		"ANDDA",
		"ANDDAINF",
		"ANDEVICE",
		"ANDEVOPS",
		"ANDH",
		"ANDHMOB",
		"ANDHRECR",
		"ANDHREMU",
		"ANDYNAM",
		"ANERP",
		"ANFAT",
		"ANFDTE",
		"ANFINANC",
		"ANFISCAL",
		"ANFLUIG",
		"ANGOVCO",
		"ANGOVCON",
		"ANGOVER",
		"ANHELPD",
		"ANIMF",
		"ANINCPRO",
		"ANINFCOR",
		"ANINFMOT",
		"ANINFRA",
		"ANJURID",
		"ANLIQ",
		"ANMC",
		"ANMCB",
		"ANMICRO",
		"ANMONITO",
		"ANMONTEC",
		"ANNEGCON",
		"ANNEINOV",
		"ANNEO",
		"ANNOVTEC",
		"ANNPC",
		"ANOFP",
		"ANOPERAC",
		"ANORCAM",
		"ANPCA",
		"ANPCS",
		"ANPITANG",
		"ANPRDIMF",
		"ANPRDOFP",
		"ANPROCES",
		"ANPRODUC",
		"ANPROJET",
		"ANPROJOP",
		"ANQA",
		"ANR&M",
		"ANRAT",
		"ANRECRUT",
		"ANREDEN2",
		"ANREDES",
		"ANREGIST",
		"ANRELTRA",
		"ANREMUN",
		"ANRISCOS",
		"ANRSC",
		"ANRT",
		"ANSAAD",
		"ANSCC",
		"ANSCCD",
		"ANSCCMOB",
		"ANSCG",
		"ANSCGINF",
		"ANSECHUB",
		"ANSEG",
		"ANSELEC",
		"ANSELTEC",
		"ANSERAPO",
		"ANSGSI",
		"ANSILOC",
		"ANSISERP",
		"ANSISEXT",
		"ANSISGEF",
		"ANSISHCM",
		"ANSISN1",
		"ANSISPPM",
		"ANSISTEM",
		"ANSITRAF",
		"ANSLC",
		"ANSOC",
		"ANSRCC",
		"ANSTDINF",
		"ANSTDSIS",
		"ANSTDTI",
		"ANSUPCQL",
		"ANSUPCTC",
		"ANSUPPCS",
		"ANSUPSCG",
		"ANSUPSTD",
		"ANTIVIT",
		"ANTOOLS",
		"ANTSN2",
		"ANWINDO",
		"ANXDS",
		"APROVA",
		"AUARQSIS",
		"AUCOMUNI",
		"AUCONTR",
		"AUFINANC",
		"AUIMF",
		"AUINFRA",
		"AUNEG",
		"AUPMO",
		"AUPRDIMF",
		"AURSC",
		"AUSERAPO",
		"AUSISCOR",
		"AUSISIMF",
		"AUSISTEM",
		"CETIP",
		"CHAT_Q",
		"CIPCRISE",
		"CIPCSERV",
		"CIPGBASE",
		"CIPGERIN",
		"CIPGMSC",
		"CIPGPRB",
		"CIPLGPD",
		"CIPSOL1N",
		"CIPSOL2N",
		"CIPSOLPR",
		"CONSIG",
		"DAC_ATL",
		"DAC_C3",
		"DAC_CPC",
		"DAC_CQL",
		"DAC_CTC",
		"DAC_MCB",
		"DAC_NPC",
		"DAC_OFP",
		"DAC_PCA",
		"DAC_PLAN",
		"DAC_R2C3",
		"DAC_SCC",
		"DAC_SCG",
		"DAC_SLC",
		"DAC_SRCC",
		"DAC_STD",
		"DPC_PPO",
		"DPC_PRO",
		"DSC_N1DB",
		"DSC_N1MW",
		"DSC_N1NS",
		"DSC_N1NW",
		"DSC_N1UX",
		"DSC_N2AT",
		"DSC_N2CP",
		"DSC_N2DB",
		"DSC_N2MW",
		"DSC_N2NS",
		"DSC_N2NW",
		"DSC_N2SG",
		"DSC_N2UX",
		"DSC_SLAM",
		"G_EXT_SD",
		"GCONF",
		"GERM",
		"GERPMO",
		"GESTAON1",
		"IEMLICM",
		"IEMTSKGR",
		"INBDACN2",
		"INBDCRN2",
		"INCPN2",
		"INFRA_CP",
		"INFRATEC",
		"INFRCORE",
		"INMDCRN2",
		"INNDPN2",
		"INSTN2",
		"INUXACN2",
		"INUXCRN2",
		"K&N",
		"REQCORE",
		"SCCD_TEM",
		"SCCDLICM",
		"SILOCSLC",
		"SUPSUPLE"
	]
}
